23-Feb-2019 10:34:27.104 信息 [localhost-startStop-1] org.apache.catalina.core.ApplicationContext.log No Spring WebApplicationInitializer types detected on classpath
23-Feb-2019 10:34:27.165 信息 [localhost-startStop-1] org.apache.catalina.core.ApplicationContext.log Initializing log4j system
23-Feb-2019 10:34:27.297 信息 [localhost-startStop-1] org.apache.catalina.core.ApplicationContext.log Initializing Spring root WebApplicationContext
23-Feb-2019 10:35:06.592 信息 [localhost-startStop-1] org.apache.catalina.core.ApplicationContext.log Initializing Spring sub WebApplicationContext: sysmanage
23-Feb-2019 10:35:07.903 信息 [localhost-startStop-1] org.apache.catalina.core.ApplicationContext.log Initializing Spring sub WebApplicationContext: sysinfo
23-Feb-2019 10:35:08.717 信息 [localhost-startStop-1] org.apache.catalina.core.ApplicationContext.log Initializing Spring sub WebApplicationContext: personal
23-Feb-2019 10:35:09.658 信息 [localhost-startStop-1] org.apache.catalina.core.ApplicationContext.log Initializing Spring sub WebApplicationContext: governance
23-Feb-2019 10:35:10.609 信息 [localhost-startStop-1] org.apache.catalina.core.ApplicationContext.log Initializing Spring sub WebApplicationContext: home
23-Feb-2019 10:35:11.657 信息 [localhost-startStop-1] org.apache.catalina.core.ApplicationContext.log WebxComponents: initialization completed
23-Feb-2019 10:35:11.662 信息 [localhost-startStop-1] org.apache.catalina.core.ApplicationContext.log Initializing filter: webx
23-Feb-2019 10:35:11.664 信息 [localhost-startStop-1] org.apache.catalina.core.ApplicationContext.log WebxFrameworkFilter - webx: initialization completed
23-Feb-2019 10:35:11.674 信息 [localhost-startStop-1] org.apache.catalina.core.ApplicationContext.log Initializing filter: mdc
23-Feb-2019 10:35:11.675 信息 [localhost-startStop-1] org.apache.catalina.core.ApplicationContext.log SetLoggingContextFilter - mdc: initialization completed
23-Feb-2019 10:38:09.993 信息 [localhost-startStop-2] org.apache.catalina.core.ApplicationContext.log Closing Spring root WebApplicationContext
23-Feb-2019 10:38:10.061 信息 [localhost-startStop-2] org.apache.catalina.core.ApplicationContext.log Shutting down log system
